[1m[33mSupport for camel case arguments has been deprecated and will be removed in a future major version.[39m[22m
[1m[33mUse '--disable-host-check' instead of '--disableHostCheck'.[39m[22m
[1m[33mWarning: Running a server with --disable-host-check is a security risk. See https://medium.com/webpack/webpack-dev-server-middleware-security-issues-1489d950874a for more information.[39m[22m
[36m⠋[39m Generating browser application bundles (phase: setup)...[36m⠙[39m Generating browser application bundles (phase: building)...[36m⠹[39m Generating browser application bundles (phase: building)...[36m⠸[39m Generating browser application bundles (phase: building)...[36m⠼[39m Generating browser application bundles (phase: building)...[36m⠴[39m Generating browser application bundles (phase: building)...[36m⠦[39m Generating browser application bundles (phase: building)...[36m⠧[39m Generating browser application bundles (phase: building)...[36m⠇[39m Generating browser application bundles (phase: building)...[36m⠏[39m Generating browser application bundles (phase: building)...[36m⠋[39m Generating browser application bundles (phase: building)...[36m⠙[39m Generating browser application bundles (phase: building)...[36m⠹[39m Generating browser application bundles (phase: building)...[36m⠸[39m Generating browser application bundles (phase: building)...[36m⠼[39m Generating browser application bundles (phase: building)...[36m⠴[39m Generating browser application bundles (phase: building)...[36m⠦[39m Generating browser application bundles (phase: building)...[36m⠧[39m Generating browser application bundles (phase: building)...[36m⠇[39m Generating browser application bundles (phase: building)...[36m⠏[39m Generating browser application bundles (phase: building)...[36m⠋[39m Generating browser application bundles (phase: sealing)...[36m⠙[39m Generating browser application bundles (phase: sealing)...[32m✔[39m Browser application bundle generation complete.
[1m[31m[39m[22m
[1m[31m[0m[91mError: [39m[31m[0m[96msrc/app/app.component.html[0m:[93m20[0m:[93m5[0m - [91merror[0m[90m NG8001: [0m'router-outlet' is not a known element:[39m[22m
[1m[31m1. If 'router-outlet' is an Angular component, then verify that it is part of this module.[39m[22m
[1m[31m2. If 'router-outlet' is a Web Component then add 'CUSTOM_ELEMENTS_SCHEMA' to the '@NgModule.schemas' of this component to suppress this message.[39m[22m
[1m[31m[39m[22m
[1m[31m[7m20[0m     <router-outlet></router-outlet>[39m[22m
[1m[31m[7m  [0m [91m    ~~~~~~~~~~~~~~~[0m[39m[22m
[1m[31m[39m[22m
[1m[31m  [96msrc/app/app.component.ts[0m:[93m5[0m:[93m16[0m[39m[22m
[1m[31m    [7m5[0m   templateUrl: './app.component.html',[39m[22m
[1m[31m    [7m [0m [96m               ~~~~~~~~~~~~~~~~~~~~~~[0m[39m[22m
[1m[31m    Error occurs in the template of component AppComponent.[39m[22m
[1m[31m[39m[22m
[1m[31m[39m[22m
[1m[31m[0m[91mError: [39m[31m[0m[96msrc/app/app.component.html[0m:[93m21[0m:[93m5[0m - [91merror[0m[90m NG8001: [0m'alert' is not a known element:[39m[22m
[1m[31m1. If 'alert' is an Angular component, then verify that it is part of this module.[39m[22m
[1m[31m2. To allow any element add 'NO_ERRORS_SCHEMA' to the '@NgModule.schemas' of this component.[39m[22m
[1m[31m[39m[22m
[1m[31m[7m21[0m     <alert class='alert'></alert>[39m[22m
[1m[31m[7m  [0m [91m    ~~~~~~~~~~~~~~~~~~~~~[0m[39m[22m
[1m[31m[39m[22m
[1m[31m  [96msrc/app/app.component.ts[0m:[93m5[0m:[93m16[0m[39m[22m
[1m[31m    [7m5[0m   templateUrl: './app.component.html',[39m[22m
[1m[31m    [7m [0m [96m               ~~~~~~~~~~~~~~~~~~~~~~[0m[39m[22m
[1m[31m    Error occurs in the template of component AppComponent.[39m[22m
[1m[31m[39m[22m
[1m[31m[39m[22m
[1m[31m[0m[91mError: [39m[31m[0m[96msrc/app/app.module.ts[0m:[93m27[0m:[93m2[0m - [91merror[0m[90m TS2552: [0mCannot find name 'ooNgModule'. Did you mean 'NgModule'?[39m[22m
[1m[31m[39m[22m
[1m[31m[7m27[0m @ooNgModule({[39m[22m
[1m[31m[7m  [0m [91m ~~~~~~~~~~[0m[39m[22m
[1m[31m[39m[22m
[1m[31m[39m[22m
[1m[31m[0m[91mError: [39m[31m[0m[96msrc/app/helpers/error.interceptor.ts[0m:[93m6[0m:[93m39[0m - [91merror[0m[90m TS2307: [0mCannot find module '@app/_services' or its corresponding type declarations.[39m[22m
[1m[31m[39m[22m
[1m[31m[7m6[0m import { AuthenticationService } from '@app/_services';[39m[22m
[1m[31m[7m [0m [91m                                      ~~~~~~~~~~~~~~~~[0m[39m[22m
[1m[31m[39m[22m
[1m[31m[39m[22m
[1m[31m[0m[91mError: [39m[31m[0m[96msrc/app/map/map.comp[39m[22m[1m[31monent.html[0m:[93m2[0m:[93m5[0m - [91merror[0m[90m NG8001: [0m'p-toast' is not a known element:[39m[22m
[1m[31m1. If 'p-toast' is an Angular component, then verify that it is part of this module.[39m[22m
[1m[31m2. If 'p-toast' is a Web Component then add 'CUSTOM_ELEMENTS_SCHEMA' to the '@NgModule.schemas' of this component to suppress this message.[39m[22m
[1m[31m[39m[22m
[1m[31m[7m2[0m     <p-toast></p-toast>[39m[22m
[1m[31m[7m [0m [91m    ~~~~~~~~~[0m[39m[22m
[1m[31m[39m[22m
[1m[31m  [96msrc/app/map/map.component.ts[0m:[93m20[0m:[93m16[0m[39m[22m
[1m[31m    [7m20[0m   templateUrl: './map.component.html',[39m[22m
[1m[31m    [7m  [0m [96m               ~~~~~~~~~~~~~~~~~~~~~~[0m[39m[22m
[1m[31m    Error occurs in the template of component MapComponent.[39m[22m
[1m[31m[39m[22m
[1m[31m[39m[22m
[1m[31m[0m[91mError: [39m[31m[0m[96msrc/app/profile/profile.component.html[0m:[93m23[0m:[93m9[0m - [91merror[0m[90m NG8001: [0m'mat-icon' is not a known element:[39m[22m
[1m[31m1. If 'mat-icon' is an Angular component, then verify that it is part of this module.[39m[22m
[1m[31m2. If 'mat-icon' is a Web Component then add 'CUSTOM_ELEMENTS_SCHEMA' to the '@NgModule.schemas' of this component to suppress this message.[39m[22m
[1m[31m[39m[22m
[1m[31m[7m23[0m         <mat-icon>attach_file</mat-icon>[39m[22m
[1m[31m[7m  [0m [91m        ~~~~~~~~~~[0m[39m[22m
[1m[31m[39m[22m
[1m[31m  [96msrc/app/profile/profile.component.ts[0m:[93m7[0m:[93m16[0m[39m[22m
[1m[31m    [7m7[0m   templateUrl: './profile.component.html',[39m[22m
[1m[31m    [7m [0m [96m               ~~~~~~~~~~~~~~~~~~~~~~~~~~[0m[39m[22m
[1m[31m    Error occurs in the template of component ProfileComponent.[39m[22m
[1m[31m[39m[22m
[1m[31m[39m[22m
[1m[31m[0m[91mError: [39m[31m[0m[96msrc/app/signin/signin.component.html[0m:[93m2[0m:[93m5[0m - [91merror[0m[90m NG8001: [0m'p-toast' is not a known element:[39m[22m
[1m[31m1. If 'p-toast' is an Angular component, then verify that it is part of this module.[39m[22m
[1m[31m2. If 'p-toast' is a Web Component then add 'CUSTOM_ELEMENTS_SCHEMA' to the '@NgModule.schemas' of this component to suppress this message.[39m[22m
[1m[31m[39m[22m
[1m[31m[7m2[0m     <p-toast></p-toast>[39m[22m
[1m[31m[7m [0m [91m    ~~~~~~~~~[0m[39m[22m
[1m[31m[39m[22m
[1m[31m  [96msrc/app/signin/signin.component.ts[0m:[93m11[0m:[93m16[0m[39m[22m
[1m[31m    [7m11[0m   templateUrl: './signin.component.html',[39m[22m
[1m[31m    [7m  [0m [96m             [39m[22m[1m[31m  ~~~~~~~~~~~~~~~~~~~~~~~~~[0m[39m[22m
[1m[31m    Error occurs in the template of component SigninComponent.[39m[22m
[1m[31m[39m[22m
[1m[31m[39m[22m
[1m[31m[0m[91mError: [39m[31m[0m[96msrc/app/signin/signin.component.html[0m:[93m9[0m:[93m67[0m - [91merror[0m[90m NG8002: [0mCan't bind to 'formControl' since it isn't a known property of 'input'.[39m[22m
[1m[31m[39m[22m
[1m[31m[7m9[0m         <input type="text" placeholder="Enter Email" name="email" [formControl]='emailForm' matInput required>[39m[22m
[1m[31m[7m [0m [91m                                                                  ~~~~~~~~~~~~~~~~~~~~~~~~~[0m[39m[22m
[1m[31m[39m[22m
[1m[31m  [96msrc/app/signin/signin.component.ts[0m:[93m11[0m:[93m16[0m[39m[22m
[1m[31m    [7m11[0m   templateUrl: './signin.component.html',[39m[22m
[1m[31m    [7m  [0m [96m               ~~~~~~~~~~~~~~~~~~~~~~~~~[0m[39m[22m
[1m[31m    Error occurs in the template of component SigninComponent.[39m[22m
[1m[31m[39m[22m
[1m[31m[39m[22m
[1m[31m[0m[91mError: [39m[31m[0m[96msrc/app/signin/signin.component.html[0m:[93m12[0m:[93m72[0m - [91merror[0m[90m NG8002: [0mCan't bind to 'formControl' since it isn't a known property of 'input'.[39m[22m
[1m[31m[39m[22m
[1m[31m[7m12[0m         <input type="password" placeholder="Enter Password" name="pwd" [formControl]='pwdForm' matInput required>[39m[22m
[1m[31m[7m  [0m [91m                                                                       ~~~~~~~~~~~~~~~~~~~~~~~[0m[39m[22m
[1m[31m[39m[22m
[1m[31m  [96msrc/app/signin/signin.component.ts[0m:[93m11[0m:[93m16[0m[39m[22m
[1m[31m    [7m11[0m   templateUrl: './signin.component.html',[39m[22m
[1m[31m    [7m  [0m [96m               ~~~~~~~~~~~~~~~~~~~~~~~~~[0m[39m[22m
[1m[31m    Error occurs in the template of component SigninComponent.[39m[22m
[1m[31m[39m[22m
[1m[31m[39m[22m
[1m[31m[0m[91mError: [39m[31m[0m[96msrc/app/signup/signup.component.html[0m:[93m2[0m:[93m5[0m - [91merror[0m[90m NG8001: [0m'p-toast' is not a known element:[39m[22m
[1m[31m1. If 'p-toast' is an Angular component, then verify that it is part of this module.[39m[22m
[1m[31m2. If 'p-toast' is a Web Component then add 'CUSTOM_ELEMENTS_SCHEMA' to the '@NgModule.schemas' of this component to suppress this message.[39m[22m
[1m[31m[39m[22m
[1m[31m[7m2[0m     <p-toast></p-toast>[39m[22m
[1m[31m[7m [0m [91m    ~~~~~~~~~[0m[39m[22m
[1m[31m[39m[22m
[1m[31m  [96msrc/app/signup/signup.component.ts[0m:[93m8[0m:[39m[22m[1m[31m[93m16[0m[39m[22m
[1m[31m    [7m8[0m   templateUrl: './signup.component.html',[39m[22m
[1m[31m    [7m [0m [96m               ~~~~~~~~~~~~~~~~~~~~~~~~~[0m[39m[22m
[1m[31m    Error occurs in the template of component SignupComponent.[39m[22m
[1m[31m[39m[22m
[1m[31m[39m[22m
[1m[31m[0m[91mError: [39m[31m[0m[96msrc/app/signup/signup.component.html[0m:[93m9[0m:[93m67[0m - [91merror[0m[90m NG8002: [0mCan't bind to 'formControl' since it isn't a known property of 'input'.[39m[22m
[1m[31m[39m[22m
[1m[31m[7m9[0m         <input type="text" placeholder="Enter Email" name="email" [formControl]='emailForm' matInput required>[39m[22m
[1m[31m[7m [0m [91m                                                                  ~~~~~~~~~~~~~~~~~~~~~~~~~[0m[39m[22m
[1m[31m[39m[22m
[1m[31m  [96msrc/app/signup/signup.component.ts[0m:[93m8[0m:[93m16[0m[39m[22m
[1m[31m    [7m8[0m   templateUrl: './signup.component.html',[39m[22m
[1m[31m    [7m [0m [96m               ~~~~~~~~~~~~~~~~~~~~~~~~~[0m[39m[22m
[1m[31m    Error occurs in the template of component SignupComponent.[39m[22m
[1m[31m[39m[22m
[1m[31m[39m[22m
[1m[31m[0m[91mError: [39m[31m[0m[96msrc/app/signup/signup.component.html[0m:[93m12[0m:[93m72[0m - [91merror[0m[90m NG8002: [0mCan't bind to 'formControl' since it isn't a known property of 'input'.[39m[22m
[1m[31m[39m[22m
[1m[31m[7m12[0m         <input type="password" placeholder="Enter Password" name="pwd" [formControl]='pwdForm' matInput required>[39m[22m
[1m[31m[7m  [0m [91m                                                                       ~~~~~~~~~~~~~~~~~~~~~~~[0m[39m[22m
[1m[31m[39m[22m
[1m[31m  [96msrc/app/signup/signup.component.ts[0m:[93m8[0m:[93m16[0m[39m[22m
[1m[31m    [7m8[0m   templateUrl: './signup.component.html',[39m[22m
[1m[31m    [7m [0m [96m               ~~~~~~~~~~~~~~~~~~~~~~~~~[0m[39m[22m
[1m[31m    Error occurs in the template of component SignupComponent.[39m[22m
[1m[31m[39m[22m
[1m[31m[39m[22m
[1m[31m[0m[91mError: [39m[31m[0m[96msrc/app/village-pane/village-pane.component.html[0m:[93m2[0m:[93m5[0m - [91merror[0m[90m NG8001: [0m'mat-icon' is not a known element:[39m[22m
[1m[31m1. If 'mat-icon' is an Angular component, then verify that it is part of this module.[39m[22m
[1m[31m2. If 'mat-icon' is a Web Component then add 'CUSTOM_ELEMENTS_SCHEMA' to the '@NgModule.schemas' of this component to suppress this message.[39m[22m
[1m[31m[39m[22m
[1m[31m[7m2[0m     <m[39m[22m[1m[31mat-icon>chat</mat-icon>[39m[22m
[1m[31m[7m [0m [91m    ~~~~~~~~~~[0m[39m[22m
[1m[31m[39m[22m
[1m[31m  [96msrc/app/village-pane/village-pane.component.ts[0m:[93m5[0m:[93m16[0m[39m[22m
[1m[31m    [7m5[0m   templateUrl: './village-pane.component.html',[39m[22m
[1m[31m    [7m [0m [96m               ~~~~~~~~~~~~~~~~~~~~~~~~~~~~~~~[0m[39m[22m
[1m[31m    Error occurs in the template of component VillagePaneComponent.[39m[22m
[1m[31m[39m[22m
[1m[31m[39m[22m
[1m[31m[39m[22m
